<svg width="180" height="50" viewBox="0 0 180 50" fill="none" xmlns="http://www.w3.org/2000/svg">
<rect width="180" height="50" rx="12" fill="black"/>
<path d="M27.9189 24.8271C27.8907 20.5994 31.3546 18.5281 31.5235 18.443C29.5522 15.5489 26.5108 15.1516 25.4125 15.1233C22.8498 14.8395 20.3716 16.6838 19.048 16.6838C17.7244 16.6838 15.6968 15.1516 13.5284 15.2084C10.7404 15.2651 8.12137 16.8824 6.68514 19.4077C3.72819 24.5718 5.92478 32.1476 8.76908 36.2902C10.1772 38.3331 11.8387 40.6031 14.0071 40.5179C16.1192 40.4328 16.9077 39.156 19.4704 39.156C22.005 39.156 22.7372 40.5179 24.9619 40.4612C27.243 40.4328 28.6792 38.4183 30.031 36.347C31.6643 34.0203 32.312 31.6936 32.3402 31.5801C32.3402 31.5801 27.9752 29.9061 27.9189 24.8271V24.8271ZM23.751 12.371C24.8774 10.9239 25.6659 8.99448 25.4407 7.0083C23.7791 7.09342 21.7233 8.17163 20.5406 9.56196C19.4986 10.8104 18.5411 12.825 18.7946 14.726C20.6532 14.8679 22.5682 13.7897 23.751 12.371V12.371Z" fill="white"/>
<path d="M59.4894 39.6335H56.357L54.6267 34.2373H48.6604L47.0196 39.6335H43.9767L49.8835 21.2683H53.5528L59.4894 39.6335ZM54.1196 31.9714L52.5683 27.1714C52.3894 26.6944 52.091 25.5317 51.6436 23.713H51.5839C51.4049 24.4882 51.1066 25.6509 50.7188 27.1714L49.1973 31.9714H54.1196ZM74.6738 32.836C74.6738 35.1019 74.0473 36.8609 72.8242 38.1727C71.7205 39.3354 70.378 39.9317 68.7373 39.9317C66.9772 39.9317 65.7242 39.3056 64.9486 38.0534V45H62.0251V30.7193C62.0251 29.318 61.9952 27.8571 61.9057 26.3665H64.5011L64.6801 28.4534H64.7398C65.7242 26.8733 67.2158 26.0683 69.2146 26.0683C70.7658 26.0683 72.0784 26.6944 73.1226 27.9168C74.1667 29.1988 74.6738 30.8385 74.6738 32.836ZM71.6906 32.9553C71.6906 31.6733 71.3923 30.6 70.8255 29.7652C70.199 28.9006 69.3339 28.4534 68.2599 28.4534C67.544 28.4534 66.8877 28.6919 66.291 29.1689C65.6944 29.646 65.3066 30.272 65.1276 31.077C65.0381 31.3752 65.0083 31.6733 64.9784 31.9714V34.1776C64.9784 35.1317 65.2767 35.9665 65.8734 36.6224C66.47 37.2783 67.2457 37.6062 68.1705 37.6062C69.2742 37.6062 70.1394 37.1888 70.7658 36.3242C71.3923 35.4894 71.6906 34.3565 71.6906 32.9553ZM89.9478 32.836C89.9478 35.1019 89.3213 36.8609 88.0982 38.1727C86.9944 39.3354 85.652 39.9317 84.0112 39.9317C82.2511 39.9317 80.9982 39.3056 80.2226 38.0534V45H77.2692V30.7193C77.2692 29.318 77.2394 27.8571 77.1499 26.3665H79.7452L79.9242 28.4534H79.9839C80.9684 26.8733 82.46 26.0683 84.4587 26.0683C86.01 26.0683 87.3226 26.6944 88.3667 27.9168C89.4108 29.1988 89.9478 30.8385 89.9478 32.836ZM86.9347 32.9553C86.9347 31.6733 86.6364 30.6 86.0696 29.7652C85.4431 28.9006 84.578 28.4534 83.5041 28.4534C82.7881 28.4534 82.1318 28.6919 81.5352 29.1689C80.9385 29.646 80.5507 30.272 80.3717 31.077C80.2822 31.4348 80.2226 31.7329 80.2226 31.9714V34.1776C80.2226 35.1317 80.5209 35.9665 81.1175 36.6224C81.7142 37.2783 82.4898 37.6062 83.4146 37.6062C84.5184 37.6062 85.3835 37.1888 86.0099 36.3242C86.6364 35.4894 86.9347 34.3565 86.9347 32.9553ZM106.982 34.4758C106.982 36.0261 106.445 37.3081 105.341 38.2919C104.148 39.3652 102.477 39.9019 100.329 39.9019C98.3604 39.9019 96.7793 39.5143 95.5562 38.7689L96.2423 36.3242C97.5251 37.0994 98.957 37.4571 100.508 37.4571C101.612 37.4571 102.477 37.2186 103.104 36.7118C103.73 36.205 104.028 35.5491 104.028 34.7143C104.028 33.9689 103.76 33.3429 103.253 32.836C102.746 32.3292 101.91 31.8522 100.717 31.405C97.4953 30.2124 95.8843 28.4534 95.8843 26.128C95.8843 24.6075 96.4511 23.3851 97.5847 22.4311C98.7184 21.477 100.24 21 102.089 21C103.76 21 105.162 21.2981 106.266 21.8646L105.52 24.2497C104.476 23.6832 103.312 23.4149 102 23.4149C100.956 23.4149 100.15 23.6832 99.5536 24.1901C99.0763 24.6373 98.8078 25.2037 98.8078 25.8596C98.8078 26.5752 99.0763 27.2012 99.6431 27.6484C100.12 28.0956 101.015 28.5429 102.328 29.0795C103.909 29.7056 105.073 30.4509 105.818 31.3155C106.624 32.1503 106.982 33.1938 106.982 34.4758ZM116.737 28.6025H113.485V35.0422C113.485 36.682 114.052 37.487 115.215 37.487C115.752 37.487 116.17 37.4571 116.528 37.3379L116.618 39.5739C116.051 39.7826 115.275 39.9019 114.32 39.9019C113.157 39.9019 112.262 39.5441 111.606 38.8286C110.949 38.113 110.621 36.9205 110.621 35.2509V28.5727H108.682V26.3665H110.621V23.9516L113.515 23.087V26.3963H116.767L116.737 28.6025ZM131.355 32.8957C131.355 34.923 130.758 36.5925 129.594 37.9043C128.371 39.246 126.76 39.9317 124.732 39.9317C122.793 39.9317 121.241 39.2758 120.078 37.9938C118.915 36.7118 118.348 35.0721 118.348 33.1043C118.348 31.0472 118.944 29.3776 120.138 28.0658C121.331 26.754 122.942 26.0981 124.941 26.0981C126.88 26.0981 128.461 26.754 129.624 28.036C130.788 29.2882 131.355 30.928 131.355 32.8957ZM128.312 32.9553C128.312 31.7329 128.043 30.6894 127.536 29.8248C126.91 28.7814 126.044 28.2447 124.881 28.2447C123.688 28.2447 122.793 28.7814 122.166 29.8248C121.629 30.6894 121.391 31.7627 121.391 33.0149C121.391 34.2373 121.659 35.2807 122.166 36.1453C122.793 37.1888 123.688 37.7255 124.851 37.7255C125.985 37.7255 126.85 37.1888 127.506 36.1155C128.043 35.2211 128.312 34.1776 128.312 32.9553ZM140.931 28.9602C140.632 28.9006 140.304 28.8708 140.006 28.8708C138.962 28.8708 138.156 29.2584 137.619 30.0335C137.142 30.7193 136.873 31.5838 136.873 32.6571V39.6037H133.92V30.5404C133.92 29.1391 133.89 27.7677 133.831 26.3665H136.396L136.515 28.9006H136.605C136.903 28.036 137.41 27.3205 138.067 26.8137C138.693 26.3665 139.439 26.0981 140.185 26.0981C140.453 26.0981 140.692 26.1279 140.931 26.1578V28.9602ZM154.116 32.3888C154.116 32.836 154.086 33.2832 153.997 33.7304H145.167C145.197 35.0422 145.614 36.0559 146.449 36.7416C147.195 37.3677 148.15 37.6658 149.343 37.6658C150.656 37.6658 151.849 37.4571 152.923 37.0398L153.37 39.0671C152.118 39.6037 150.626 39.872 148.926 39.872C146.867 39.872 145.256 39.2758 144.093 38.0534C142.929 36.8311 142.333 35.2211 142.333 33.1938C142.333 31.1963 142.87 29.5267 143.973 28.2149C145.107 26.7839 146.658 26.0981 148.597 26.0981C150.507 26.0981 151.968 26.8137 152.923 28.2149C153.728 29.3478 154.116 30.7193 154.116 32.3888ZM151.312 31.6137C151.342 30.7491 151.133 29.9739 150.745 29.3478C150.238 28.513 149.462 28.1255 148.389 28.1255C147.434 28.1255 146.628 28.513 146.032 29.318C145.554 29.9441 145.256 30.7193 145.167 31.6137H151.312Z" fill="white"/>
<path d="M51.9902 17V8.46875H54.3984C55.1406 8.46875 55.7969 8.63281 56.3672 8.96094C56.9375 9.28906 57.377 9.75586 57.6855 10.3613C57.998 10.9668 58.1562 11.6621 58.1602 12.4473V12.9922C58.1602 13.7969 58.0039 14.502 57.6914 15.1074C57.3828 15.7129 56.9395 16.1777 56.3613 16.502C55.7871 16.8262 55.1172 16.9922 54.3516 17H51.9902ZM53.1152 9.39453V16.0801H54.2988C55.166 16.0801 55.8398 15.8105 56.3203 15.2715C56.8047 14.7324 57.0469 13.9648 57.0469 12.9688V12.4707C57.0469 11.502 56.8184 10.75 56.3613 10.2148C55.9082 9.67578 55.2637 9.40234 54.4277 9.39453H53.1152ZM59.4082 13.7715C59.4082 13.1504 59.5293 12.5918 59.7715 12.0957C60.0176 11.5996 60.3574 11.2168 60.791 10.9473C61.2285 10.6777 61.7266 10.543 62.2852 10.543C63.1484 10.543 63.8457 10.8418 64.377 11.4395C64.9121 12.0371 65.1797 12.832 65.1797 13.8242V13.9004C65.1797 14.5176 65.0605 15.0723 64.8223 15.5645C64.5879 16.0527 64.25 16.4336 63.8086 16.707C63.3711 16.9805 62.8672 17.1172 62.2969 17.1172C61.4375 17.1172 60.7402 16.8184 60.2051 16.2207C59.6738 15.623 59.4082 14.832 59.4082 13.8477V13.7715ZM60.498 13.9004C60.498 14.6035 60.6602 15.168 60.9844 15.5938C61.3125 16.0195 61.75 16.2324 62.2969 16.2324C62.8477 16.2324 63.2852 16.0176 63.6094 15.5879C63.9336 15.1543 64.0957 14.5488 64.0957 13.7715C64.0957 13.0762 63.9297 12.5137 63.5977 12.084C63.2695 11.6504 62.832 11.4336 62.2852 11.4336C61.75 11.4336 61.3184 11.6465 60.9902 12.0723C60.6621 12.498 60.498 13.1074 60.498 13.9004ZM72.1523 15.5059L73.3711 10.6602H74.4551L72.6094 17H71.7305L70.1895 12.1953L68.6895 17H67.8105L65.9707 10.6602H67.0488L68.2969 15.4062L69.7734 10.6602H70.6465L72.1523 15.5059ZM76.5879 10.6602L76.623 11.457C77.1074 10.8477 77.7402 10.543 78.5215 10.543C79.8613 10.543 80.5371 11.2988 80.5488 12.8105V17H79.4648V12.8047C79.4609 12.3477 79.3555 12.0098 79.1484 11.791C78.9453 11.5723 78.627 11.4629 78.1934 11.4629C77.8418 11.4629 77.5332 11.5566 77.2676 11.7441C77.002 11.9316 76.7949 12.1777 76.6465 12.4824V17H75.5625V10.6602H76.5879ZM83.3613 17H82.2773V8H83.3613V17ZM84.8145 13.7715C84.8145 13.1504 84.9355 12.5918 85.1777 12.0957C85.4238 11.5996 85.7637 11.2168 86.1973 10.9473C86.6348 10.6777 87.1328 10.543 87.6914 10.543C88.5547 10.543 89.252 10.8418 89.7832 11.4395C90.3184 12.0371 90.5859 12.832 90.5859 13.8242V13.9004C90.5859 14.5176 90.4668 15.0723 90.2285 15.5645C89.9941 16.0527 89.6562 16.4336 89.2148 16.707C88.7773 16.9805 88.2734 17.1172 87.7031 17.1172C86.8438 17.1172 86.1465 16.8184 85.6113 16.2207C85.0801 15.623 84.8145 14.832 84.8145 13.8477V13.7715ZM85.9043 13.9004C85.9043 14.6035 86.0664 15.168 86.3906 15.5938C86.7188 16.0195 87.1562 16.2324 87.7031 16.2324C88.2539 16.2324 88.6914 16.0176 89.0156 15.5879C89.3398 15.1543 89.502 14.5488 89.502 13.7715C89.502 13.0762 89.3359 12.5137 89.0039 12.084C88.6758 11.6504 88.2383 11.4336 87.6914 11.4336C87.1562 11.4336 86.7246 11.6465 86.3965 12.0723C86.0684 12.498 85.9043 13.1074 85.9043 13.9004ZM95.8594 17C95.7969 16.875 95.7461 16.6523 95.707 16.332C95.2031 16.8555 94.6016 17.1172 93.9023 17.1172C93.2773 17.1172 92.7637 16.9414 92.3613 16.5898C91.9629 16.2344 91.7637 15.7852 91.7637 15.2422C91.7637 14.582 92.0137 14.0703 92.5137 13.707C93.0176 13.3398 93.7246 13.1562 94.6348 13.1562H95.6895V12.6582C95.6895 12.2793 95.5762 11.9785 95.3496 11.7559C95.123 11.5293 94.7891 11.416 94.3477 11.416C93.9609 11.416 93.6367 11.5137 93.375 11.709C93.1133 11.9043 92.9824 12.1406 92.9824 12.418H91.8926C91.8926 12.1016 92.0039 11.7969 92.2266 11.5039C92.4531 11.207 92.7578 10.9727 93.1406 10.8008C93.5273 10.6289 93.9512 10.543 94.4121 10.543C95.1426 10.543 95.7148 10.7266 96.1289 11.0938C96.543 11.457 96.7578 11.959 96.7734 12.5996V15.5176C96.7734 16.0996 96.8477 16.5625 96.9961 16.9062V17H95.8594ZM94.0605 16.1738C94.4004 16.1738 94.7227 16.0859 95.0273 15.9102C95.332 15.7344 95.5527 15.5059 95.6895 15.2246V13.9238H94.8398C93.5117 13.9238 92.8477 14.3125 92.8477 15.0898C92.8477 15.4297 92.9609 15.6953 93.1875 15.8867C93.4141 16.0781 93.7051 16.1738 94.0605 16.1738ZM98.209 13.7773C98.209 12.8047 98.4395 12.0234 98.9004 11.4336C99.3613 10.8398 99.9648 10.543 100.711 10.543C101.453 10.543 102.041 10.7969 102.475 11.3047V8H103.559V17H102.562L102.51 16.3203C102.076 16.8516 101.473 17.1172 100.699 17.1172C99.9648 17.1172 99.3652 16.8164 98.9004 16.2148C98.4395 15.6133 98.209 14.8281 98.209 13.8594V13.7773ZM99.293 13.9004C99.293 14.6191 99.4414 15.1816 99.7383 15.5879C100.035 15.9941 100.445 16.1973 100.969 16.1973C101.656 16.1973 102.158 15.8887 102.475 15.2715V12.3594C102.15 11.7617 101.652 11.4629 100.98 11.4629C100.449 11.4629 100.035 11.668 99.7383 12.0781C99.4414 12.4883 99.293 13.0957 99.293 13.9004ZM107.936 13.7715C107.936 13.1504 108.057 12.5918 108.299 12.0957C108.545 11.5996 108.885 11.2168 109.318 10.9473C109.756 10.6777 110.254 10.543 110.812 10.543C111.676 10.543 112.373 10.8418 112.904 11.4395C113.439 12.0371 113.707 12.832 113.707 13.8242V13.9004C113.707 14.5176 113.588 15.0723 113.35 15.5645C113.115 16.0527 112.777 16.4336 112.336 16.707C111.898 16.9805 111.395 17.1172 110.824 17.1172C109.965 17.1172 109.268 16.8184 108.732 16.2207C108.201 15.623 107.936 14.832 107.936 13.8477V13.7715ZM109.025 13.9004C109.025 14.6035 109.188 15.168 109.512 15.5938C109.84 16.0195 110.277 16.2324 110.824 16.2324C111.375 16.2324 111.812 16.0176 112.137 15.5879C112.461 15.1543 112.623 14.5488 112.623 13.7715C112.623 13.0762 112.457 12.5137 112.125 12.084C111.797 11.6504 111.359 11.4336 110.812 11.4336C110.277 11.4336 109.846 11.6465 109.518 12.0723C109.189 12.498 109.025 13.1074 109.025 13.9004ZM118.98 16.373C118.559 16.8691 117.939 17.1172 117.123 17.1172C116.447 17.1172 115.932 16.9219 115.576 16.5312C115.225 16.1367 115.047 15.5547 115.043 14.7852V10.6602H116.127V14.7559C116.127 15.7168 116.518 16.1973 117.299 16.1973C118.127 16.1973 118.678 15.8887 118.951 15.2715V10.6602H120.035V17H119.004L118.98 16.373ZM124.752 11.6328C124.588 11.6055 124.41 11.5918 124.219 11.5918C123.508 11.5918 123.025 11.8945 122.771 12.5V17H121.688V10.6602H122.742L122.76 11.3926C123.115 10.8262 123.619 10.543 124.271 10.543C124.482 10.543 124.643 10.5703 124.752 10.625V11.6328ZM132.645 17C132.582 16.875 132.531 16.6523 132.492 16.332C131.988 16.8555 131.387 17.1172 130.688 17.1172C130.062 17.1172 129.549 16.9414 129.146 16.5898C128.748 16.2344 128.549 15.7852 128.549 15.2422C128.549 14.582 128.799 14.0703 129.299 13.707C129.803 13.3398 130.51 13.1562 131.42 13.1562H132.475V12.6582C132.475 12.2793 132.361 11.9785 132.135 11.7559C131.908 11.5293 131.574 11.416 131.133 11.416C130.746 11.416 130.422 11.5137 130.16 11.709C129.898 11.9043 129.768 12.1406 129.768 12.418H128.678C128.678 12.1016 128.789 11.7969 129.012 11.5039C129.238 11.207 129.543 10.9727 129.926 10.8008C130.312 10.6289 130.736 10.543 131.197 10.543C131.928 10.543 132.5 10.7266 132.914 11.0938C133.328 11.457 133.543 11.959 133.559 12.5996V15.5176C133.559 16.0996 133.633 16.5625 133.781 16.9062V17H132.645ZM130.846 16.1738C131.186 16.1738 131.508 16.0859 131.812 15.9102C132.117 15.7344 132.338 15.5059 132.475 15.2246V13.9238H131.625C130.297 13.9238 129.633 14.3125 129.633 15.0898C129.633 15.4297 129.746 15.6953 129.973 15.8867C130.199 16.0781 130.49 16.1738 130.846 16.1738ZM140.613 13.9004C140.613 14.8652 140.393 15.6426 139.951 16.2324C139.51 16.8223 138.912 17.1172 138.158 17.1172C137.389 17.1172 136.783 16.873 136.342 16.3848V19.4375H135.258V10.6602H136.248L136.301 11.3633C136.742 10.8164 137.355 10.543 138.141 10.543C138.902 10.543 139.504 10.8301 139.945 11.4043C140.391 11.9785 140.613 12.7773 140.613 13.8008V13.9004ZM139.529 13.7773C139.529 13.0625 139.377 12.498 139.072 12.084C138.768 11.6699 138.35 11.4629 137.818 11.4629C137.162 11.4629 136.67 11.7539 136.342 12.3359V15.3652C136.666 15.9434 137.162 16.2324 137.83 16.2324C138.35 16.2324 138.762 16.0273 139.066 15.6172C139.375 15.2031 139.529 14.5898 139.529 13.7773ZM147.352 13.9004C147.352 14.8652 147.131 15.6426 146.689 16.2324C146.248 16.8223 145.65 17.1172 144.896 17.1172C144.127 17.1172 143.521 16.873 143.08 16.3848V19.4375H141.996V10.6602H142.986L143.039 11.3633C143.48 10.8164 144.094 10.543 144.879 10.543C145.641 10.543 146.242 10.8301 146.684 11.4043C147.129 11.9785 147.352 12.7773 147.352 13.8008V13.9004ZM146.268 13.7773C146.268 13.0625 146.115 12.498 145.811 12.084C145.506 11.6699 145.088 11.4629 144.557 11.4629C143.9 11.4629 143.408 11.7539 143.08 12.3359V15.3652C143.404 15.9434 143.9 16.2324 144.568 16.2324C145.088 16.2324 145.5 16.0273 145.805 15.6172C146.113 15.2031 146.268 14.5898 146.268 13.7773ZM151.424 13.7715C151.424 13.1504 151.545 12.5918 151.787 12.0957C152.033 11.5996 152.373 11.2168 152.807 10.9473C153.244 10.6777 153.742 10.543 154.301 10.543C155.164 10.543 155.861 10.8418 156.393 11.4395C156.928 12.0371 157.195 12.832 157.195 13.8242V13.9004C157.195 14.5176 157.076 15.0723 156.838 15.5645C156.604 16.0527 156.266 16.4336 155.824 16.707C155.387 16.9805 154.883 17.1172 154.312 17.1172C153.453 17.1172 152.756 16.8184 152.221 16.2207C151.689 15.623 151.424 14.832 151.424 13.8477V13.7715ZM152.514 13.9004C152.514 14.6035 152.676 15.168 153 15.5938C153.328 16.0195 153.766 16.2324 154.312 16.2324C154.863 16.2324 155.301 16.0176 155.625 15.5879C155.949 15.1543 156.111 14.5488 156.111 13.7715C156.111 13.0762 155.945 12.5137 155.613 12.084C155.285 11.6504 154.848 11.4336 154.301 11.4336C153.766 11.4336 153.334 11.6465 153.006 12.0723C152.678 12.498 152.514 13.1074 152.514 13.9004ZM159.58 10.6602L159.615 11.457C160.1 10.8477 160.732 10.543 161.514 10.543C162.854 10.543 163.529 11.2988 163.541 12.8105V17H162.457V12.8047C162.453 12.3477 162.348 12.0098 162.141 11.791C161.938 11.5723 161.619 11.4629 161.186 11.4629C160.834 11.4629 160.525 11.5566 160.26 11.7441C159.994 11.9316 159.787 12.1777 159.639 12.4824V17H158.555V10.6602H159.58Z" fill="white"/>
</svg>
