<svg width="1280" height="107" viewBox="0 0 1280 107" fill="none" xmlns="http://www.w3.org/2000/svg">
<path d="M842.419 105C842.419 104.461 842.779 104.102 843.32 104.102H847.014V76.7159H849.717V72.4957H848.906C848.365 72.4957 848.005 72.1365 848.005 71.5978C848.005 71.059 848.365 70.6999 848.906 70.6999H849.807C850.348 67.3776 853.051 64.7737 856.384 64.4145V62.6187C856.384 62.08 856.745 61.7208 857.285 61.7208C857.826 61.7208 858.186 62.08 858.186 62.6187V64.4145C861.52 64.8635 864.223 67.3776 864.764 70.6999H865.665C866.206 70.6999 866.566 71.059 866.566 71.5978C866.566 72.1365 866.206 72.4957 865.665 72.4957H864.854V76.7159H867.377V68.6347C865.935 66.1205 865.214 63.1574 865.214 60.1943C865.214 53.8192 870.35 48.4317 875.216 45.4686L875.306 45.3788L881.162 40.2608V32.8979C881.162 32.3592 881.523 32 882.063 32C882.604 32 882.964 32.3592 882.964 32.8979V40.2608L888.641 45.2891H888.731L888.911 45.3788C893.777 48.3419 898.913 53.8192 898.913 60.1943C898.913 63.1574 898.192 66.0307 896.75 68.6347V76.8057H899.093V72.5855H898.282C897.741 72.5855 897.381 72.2263 897.381 71.6876C897.381 71.1488 897.741 70.7897 898.282 70.7897H899.183C899.723 67.4674 902.427 64.8635 905.76 64.5043V62.7085C905.76 62.1697 906.121 61.8106 906.661 61.8106C907.202 61.8106 907.562 62.1697 907.562 62.7085V64.5043C910.896 64.9533 913.599 67.4674 914.14 70.7897H915.041C915.581 70.7897 915.942 71.1488 915.942 71.6876C915.942 72.2263 915.581 72.5855 915.041 72.5855H914.23V76.8057H917.113V104.192H920.807C921.348 104.192 921.798 104.461 921.798 105M909.905 73.663C910.446 73.663 910.806 74.0221 910.806 74.5609V76.8057H909.004V74.5609C909.004 74.1119 909.454 73.663 909.905 73.663ZM906.661 73.663C907.202 73.663 907.562 74.0221 907.562 74.5609V76.8057H905.76V74.5609C905.76 74.1119 906.211 73.663 906.661 73.663ZM902.607 74.5609C902.607 74.0221 902.967 73.663 903.508 73.663C904.048 73.663 904.409 74.0221 904.409 74.5609V76.8057H902.607V74.5609ZM860.529 73.663C861.07 73.663 861.43 74.0221 861.43 74.5609V76.8057H859.628V74.5609C859.628 74.1119 859.988 73.663 860.529 73.663ZM857.285 73.663C857.826 73.663 858.186 74.0221 858.186 74.5609V76.8057H856.384V74.5609C856.384 74.1119 856.835 73.663 857.285 73.663ZM853.231 74.5609C853.231 74.0221 853.591 73.663 854.132 73.663C854.672 73.663 855.033 74.0221 855.033 74.5609V76.8057H853.231V74.5609Z" stroke="#BDBDBD"/>
<path d="M780.194 48.6271H753.776C753.621 48.6271 753.531 48.5774 753.48 48.5259C753.428 48.474 753.378 48.3807 753.378 48.2215C753.378 48.0623 753.428 47.969 753.48 47.9171C753.531 47.8656 753.621 47.8159 753.776 47.8159H780.194C780.349 47.8159 780.44 47.8656 780.491 47.9171C780.542 47.969 780.593 48.0623 780.593 48.2215C780.593 48.3807 780.542 48.474 780.491 48.5259C780.44 48.5774 780.349 48.6271 780.194 48.6271Z" stroke="#BDBDBD"/>
<path d="M714.419 106.18V96.4898H721.607V88.6111H728.796V80.7324H735.984V72.8537H743.173V64.975H750.362V57.0963H758.089H759.078H760.516H773.635H775.252H775.971H783.878V64.975H791.067V72.8537H798.256V80.7324H805.444V88.6111H812.633V96.4898H819.822V106.18" stroke="#BDBDBD"/>
<path d="M757.64 50.4668H757.14V50.9668V56.7775H754.456V44.1935H778.616V56.7775H776.022V50.9668V50.4668H775.522H770.759H770.259V50.9668V56.7775H770.091V50.9668V50.4668H769.591H763.571H763.071V50.9668V56.7775H762.903V50.9668V50.4668H762.403H757.64Z" stroke="#BDBDBD"/>
<path d="M760.386 56.5057V55.7852H760.555V56.5057H760.386Z" stroke="#BDBDBD"/>
<path d="M773.506 56.5057V55.7852H773.674V56.5057H773.506Z" stroke="#BDBDBD"/>
<path d="M766.317 56.5057V55.7852H767.743V56.5057H766.317Z" stroke="#BDBDBD"/>
<path d="M942.216 106H941.946C941.407 106 941.047 105.641 941.047 105.103C941.047 104.564 941.407 104.205 941.946 104.205H942.216V91.7334V90.1183V71.814V71.0065V53.9584C942.126 54.0481 942.036 54.0481 942.036 54.0481C941.856 54.1378 941.766 54.1378 941.587 54.1378C941.227 54.1378 940.958 53.9584 940.778 53.6892C940.508 53.2406 940.688 52.7022 941.137 52.433C941.227 52.433 941.587 52.1638 942.216 51.8947V46.7802L942.665 46.5111C943.204 46.1521 956.056 38.4356 985.084 37H985.893L985.983 37.8075C986.252 39.8713 986.432 41.4863 986.612 43.0117C986.882 43.0117 987.061 43.0117 987.241 43.0117C987.69 43.0117 988.14 43.4603 988.14 43.909C988.14 44.3576 987.78 44.8062 987.241 44.8062C987.061 44.8062 986.971 44.8062 986.792 44.8062C987.511 50.1899 987.87 53.5098 989.038 65.264C990.746 65.264 992.543 65.264 994.341 65.264C1030.11 65.264 1045.3 70.5579 1045.93 70.8271L1046.56 71.0065V90.1183V91.7334V104.205H1046.92C1047.45 104.205 1047.81 104.564 1047.81 105.103C1047.81 105.641 1047.45 106 1046.92 106H1046.56M975.648 53.5995C975.648 51.5358 977.265 49.7412 979.153 49.7412C981.13 49.7412 982.658 51.446 982.658 53.5995V62.0338H975.558V53.5995H975.648ZM962.167 54.9454C962.167 52.9714 963.695 51.3563 965.492 51.3563C967.29 51.3563 968.818 52.9714 968.818 54.9454V62.3927L962.167 62.8414V54.9454ZM948.417 57.5475C948.417 55.7529 949.765 54.407 951.562 54.407C953.27 54.407 954.708 55.8427 954.708 57.5475V64.1873L948.507 65.0845V57.5475H948.417Z" stroke="#BDBDBD"/>
<path d="M1084.43 106C1083.89 106 1083.53 105.639 1083.53 105.097V96.5154C1083.53 95.9734 1083.89 95.6121 1084.43 95.6121H1090.97V90.7343C1090.97 90.1923 1091.33 89.831 1091.87 89.831H1094.11C1094.28 89.289 1094.82 88.2051 1095.45 86.9404L1086.31 67.3389C1086.22 67.1583 1086.22 66.8873 1086.31 66.6163C1086.4 66.3453 1086.58 66.1646 1086.85 66.0743C1087.21 65.984 1095.72 63.6354 1108.17 67.3389L1106.91 58.2156C1106.83 57.764 1107.18 57.3123 1107.63 57.222C1107.9 57.1317 1114.98 55.9574 1125.37 60.7449C1124.29 55.0541 1123.22 49.544 1122.41 45.1178C1122.41 44.8468 1122.5 44.5759 1122.68 44.3049C1122.86 44.0339 1123.22 43.9435 1123.49 44.0339C1149.64 48.731 1158.33 65.6227 1161.29 71.7651C1170.87 67.5196 1183.24 64.358 1196.31 66.8873C1196.58 66.9776 1196.85 67.1583 1196.94 67.4293C1197.03 67.7002 1197.03 67.9712 1196.85 68.2422C1195.51 70.4101 1193.54 73.933 1190.94 78.8108C1192.91 79.4431 1195.24 80.2561 1197.66 81.611C1200.17 80.4367 1213.15 74.5653 1224.8 78.2688C1225.16 78.3591 1225.34 78.6301 1225.43 78.9914C1225.43 79.3528 1225.34 79.6237 1225.25 79.8044C1223.37 81.34 1209.84 93.2635 1205.09 97.4187H1213.6C1213.87 97.4187 1214.05 97.509 1214.23 97.6897L1221.31 104.464C1221.57 104.735 1221.66 105.097 1221.48 105.458C1221.4 105.729 1221.04 106 1220.68 106M1110.41 90.373L1097.69 86.3985C1100.02 82.0626 1104.05 75.8299 1108.8 73.8427L1111.04 90.373H1110.41ZM1126.98 94.2571L1119.81 90.5536C1119.72 90.4633 1119.55 90.4633 1119.37 90.4633H1113.19C1114.62 86.7598 1119.55 75.2879 1126.8 69.8681C1128.86 81.1594 1130.83 91.5473 1131.37 94.2571H1126.98ZM1135.22 54.7831C1135.04 55.0541 1134.77 55.2348 1134.42 55.2348C1134.24 55.2348 1134.15 55.2347 1133.97 55.1444C1133.97 55.1444 1133.34 54.7831 1132.62 54.5121C1132.18 54.3315 1131.91 53.7895 1132.09 53.3378C1132.27 52.8862 1132.8 52.6152 1133.25 52.7958C1134.15 53.1572 1134.86 53.6088 1134.95 53.6088C1135.4 53.7895 1135.49 54.3315 1135.22 54.7831ZM1153.05 72.3071C1152.96 72.3974 1152.78 72.3974 1152.69 72.3974C1152.33 72.3974 1152.06 72.2167 1151.88 71.8554C1149.29 66.255 1141.04 59.2093 1138.89 57.9446C1138.45 57.6737 1138.36 57.1317 1138.54 56.68C1138.8 56.2284 1139.34 56.138 1139.79 56.3187C1142.12 57.6736 1150.63 64.9904 1153.5 71.0424C1153.67 71.5844 1153.5 72.1264 1153.05 72.3071ZM1158.06 94.2571C1157.62 86.1275 1161.74 77.0945 1163.44 73.7523L1176.43 94.2571H1158.06ZM1182.88 94.2571C1183.5 92.9925 1184.58 90.8246 1186.01 88.1147L1188.25 94.2571H1182.88Z" stroke="#BDBDBD"/>
<line x1="1231" y1="105.5" x2="1365" y2="105.5" stroke="#BDBDBD"/>
<line x1="1056" y1="105.5" x2="1092" y2="105.5" stroke="#BDBDBD"/>
<line x1="928" y1="105.5" x2="948" y2="105.5" stroke="#BDBDBD"/>
<line x1="826" y1="105.5" x2="850" y2="105.5" stroke="#BDBDBD"/>
<mask id="path-14-inside-1_4_216" fill="white">
<path fill-rule="evenodd" clip-rule="evenodd" d="M507.133 33.4604C531.934 33.4604 551.433 24.3138 551.612 24.2233L552.691 23.5894V35.6338L552.241 35.9055C552.241 35.9055 550.264 36.9922 546.49 38.26C546.408 38.2933 545.752 38.5038 544.603 38.8253V44.4181L543.975 44.5992C543.934 44.6094 543.849 44.6348 543.721 44.6734L543.721 44.6734L543.721 44.6734C542.713 44.9757 538.996 46.0909 532.383 47.1349V52.0251H529.507L529.867 56.1908H537.774H540.021C540.56 56.1908 540.919 56.5531 540.919 57.0964C540.919 57.6398 540.56 58.002 540.021 58.002H537.774V62.53H530.316L531.394 88.0678H536.966L537.145 83.7209H536.606C536.067 83.7209 535.708 83.3587 535.708 82.8153C535.708 82.272 536.067 81.9097 536.606 81.9097H537.235H543.345H543.975C544.514 81.9097 545.143 82.272 545.143 82.8153C545.143 83.3587 544.783 83.7209 544.244 83.7209H543.705L544.873 106.27H536.247L536.606 98.7538H532.023L532.293 106.27H519.713L521.51 62.6206H493.115L494.912 106.27H482.332L482.602 98.7538H478.019L478.378 106.27H469.752L470.92 83.7209H470.381C469.842 83.7209 469.483 83.3587 469.483 82.8153C469.483 82.272 469.842 81.9097 470.381 81.9097H471.01H477.12H477.929C478.468 81.9097 478.828 82.272 478.828 82.8153C478.828 83.3587 478.468 83.7209 477.929 83.7209H477.39L477.57 88.0678H483.141L484.219 62.53H476.671V58.002H474.425C473.886 58.002 473.526 57.6398 473.526 57.0964C473.526 56.5531 473.886 56.1908 474.425 56.1908H476.671H484.579L484.938 52.0251H482.063V47.1349C474.604 45.9576 470.74 44.6898 470.471 44.5992L469.842 44.4181V38.9173C469.43 38.8075 469.085 38.7135 468.811 38.6387C468.348 38.5125 468.086 38.4412 468.045 38.4412C468 38.4412 467.955 38.4185 467.91 38.3959C467.865 38.3732 467.82 38.3506 467.775 38.3506C464.797 37.3037 462.94 36.4181 462.204 36.0671C461.985 35.9626 461.865 35.9055 461.845 35.9055L461.395 35.6338V23.5894L462.653 24.2233C462.833 24.3138 482.332 33.4604 507.133 33.4604ZM513.603 48.8555V56.2814H521.78L522.139 52.1156H519.264V48.5838C517.467 48.6744 515.579 48.7649 513.603 48.8555ZM495.092 52.1156H492.216L492.576 56.2814H500.753V48.8555C498.776 48.7649 496.889 48.6744 495.092 48.5838V52.1156ZM477.57 89.9695L477.929 96.9426H482.692L482.961 89.9695H477.57ZM531.484 89.9695L531.754 96.9426H536.516L536.876 89.9695H531.484ZM479.996 80.008C480.265 80.2797 480.355 80.6419 480.265 81.0041C480.086 81.3664 479.816 81.6381 479.457 81.6381H468.764C468.404 81.6381 468.045 81.3664 467.955 81.0041C467.775 80.6419 467.955 80.2797 468.225 80.008L473.526 75.6612C473.886 75.3895 474.335 75.3895 474.694 75.6612L479.996 80.008ZM540.829 75.6612C540.47 75.3895 540.021 75.3895 539.661 75.6612L534.36 80.008C534.09 80.2797 533.91 80.6419 534.09 81.0041C534.18 81.3664 534.539 81.6381 534.899 81.6381H545.592C545.951 81.6381 546.311 81.3664 546.401 81.0041C546.49 80.6419 546.401 80.2797 546.131 80.008L540.829 75.6612Z"/>
</mask>
<path d="M551.612 24.2233L552.062 25.1163L552.091 25.1017L552.119 25.0853L551.612 24.2233ZM552.691 23.5894H553.691V21.8414L552.184 22.7273L552.691 23.5894ZM552.691 35.6338L553.208 36.4895L553.691 36.1977V35.6338H552.691ZM552.241 35.9055L552.723 36.7818L552.741 36.7719L552.759 36.7612L552.241 35.9055ZM546.49 38.26L546.172 37.3121L546.144 37.3215L546.117 37.3326L546.49 38.26ZM544.603 38.8253L544.334 37.8623L543.603 38.0667V38.8253H544.603ZM544.603 44.4181L544.88 45.379L545.603 45.1707V44.4181H544.603ZM543.975 44.5992L544.219 45.5689L544.235 45.5648L544.251 45.5601L543.975 44.5992ZM543.721 44.6734L543.963 45.6435L543.986 45.6379L544.008 45.6312L543.721 44.6734ZM543.721 44.6734L543.478 43.7033L543.456 43.7089L543.433 43.7156L543.721 44.6734ZM532.383 47.1349L532.227 46.1471L531.383 46.2803V47.1349H532.383ZM532.383 52.0251V53.0251H533.383V52.0251H532.383ZM529.507 52.0251V51.0251H528.417L528.511 52.1111L529.507 52.0251ZM529.867 56.1908L528.871 56.2768L528.949 57.1908H529.867V56.1908ZM537.774 58.002V57.002H536.774V58.002H537.774ZM537.774 62.53V63.53H538.774V62.53H537.774ZM530.316 62.53V61.53H529.273L529.317 62.5722L530.316 62.53ZM531.394 88.0678L530.395 88.11L530.436 89.0678H531.394V88.0678ZM536.966 88.0678V89.0678H537.925L537.965 88.1091L536.966 88.0678ZM537.145 83.7209L538.144 83.7622L538.187 82.7209H537.145V83.7209ZM543.705 83.7209V82.7209H542.652L542.706 83.7727L543.705 83.7209ZM544.873 106.27V107.27H545.926L545.872 106.219L544.873 106.27ZM536.247 106.27L535.248 106.222L535.198 107.27H536.247V106.27ZM536.606 98.7538L537.605 98.8016L537.655 97.7538H536.606V98.7538ZM532.023 98.7538V97.7538H530.987L531.024 98.7897L532.023 98.7538ZM532.293 106.27V107.27H533.33L533.292 106.234L532.293 106.27ZM519.713 106.27L518.714 106.229L518.671 107.27H519.713V106.27ZM521.51 62.6206L522.509 62.6617L522.552 61.6206H521.51V62.6206ZM493.115 62.6206V61.6206H492.073L492.116 62.6617L493.115 62.6206ZM494.912 106.27V107.27H495.954L495.911 106.229L494.912 106.27ZM482.332 106.27L481.333 106.234L481.296 107.27H482.332V106.27ZM482.602 98.7538L483.601 98.7897L483.638 97.7538H482.602V98.7538ZM478.019 98.7538V97.7538H476.97L477.02 98.8016L478.019 98.7538ZM478.378 106.27V107.27H479.427L479.377 106.222L478.378 106.27ZM469.752 106.27L468.753 106.219L468.699 107.27H469.752V106.27ZM470.92 83.7209L471.919 83.7727L471.973 82.7209H470.92V83.7209ZM477.39 83.7209V82.7209H476.348L476.391 83.7622L477.39 83.7209ZM477.57 88.0678L476.571 88.1091L476.61 89.0678H477.57V88.0678ZM483.141 88.0678V89.0678H484.1L484.14 88.11L483.141 88.0678ZM484.219 62.53L485.218 62.5722L485.262 61.53H484.219V62.53ZM476.671 62.53H475.671V63.53H476.671V62.53ZM476.671 58.002H477.671V57.002H476.671V58.002ZM484.579 56.1908V57.1908H485.496L485.575 56.2768L484.579 56.1908ZM484.938 52.0251L485.934 52.1111L486.028 51.0251H484.938V52.0251ZM482.063 52.0251H481.063V53.0251H482.063V52.0251ZM482.063 47.1349H483.063V46.2803L482.219 46.1471L482.063 47.1349ZM470.471 44.5992L470.789 43.6513L470.769 43.6443L470.748 43.6382L470.471 44.5992ZM469.842 44.4181H468.842V45.1707L469.565 45.379L469.842 44.4181ZM469.842 38.9173H470.842V38.1492L470.1 37.9511L469.842 38.9173ZM468.811 38.6387L468.548 39.6035H468.548L468.811 38.6387ZM467.91 38.3959L468.36 37.5028L468.36 37.5028L467.91 38.3959ZM467.775 38.3506L467.444 39.294L467.605 39.3506H467.775V38.3506ZM462.204 36.0671L461.774 36.9697H461.774L462.204 36.0671ZM461.845 35.9055L461.327 36.7612L461.566 36.9055H461.845V35.9055ZM461.395 35.6338H460.395V36.1977L460.878 36.4895L461.395 35.6338ZM461.395 23.5894L461.845 22.6963L460.395 21.9657V23.5894H461.395ZM462.653 24.2233L463.103 23.3302L463.103 23.3302L462.653 24.2233ZM513.603 56.2814H512.603V57.2814H513.603V56.2814ZM513.603 48.8555L513.557 47.8565L512.603 47.9003V48.8555H513.603ZM521.78 56.2814V57.2814H522.697L522.776 56.3673L521.78 56.2814ZM522.139 52.1156L523.135 52.2016L523.229 51.1156H522.139V52.1156ZM519.264 52.1156H518.264V53.1156H519.264V52.1156ZM519.264 48.5838H520.264V47.5322L519.213 47.5851L519.264 48.5838ZM492.216 52.1156V51.1156H491.126L491.22 52.2016L492.216 52.1156ZM495.092 52.1156V53.1156H496.092V52.1156H495.092ZM492.576 56.2814L491.58 56.3674L491.659 57.2814H492.576V56.2814ZM500.753 56.2814V57.2814H501.753V56.2814H500.753ZM500.753 48.8555H501.753V47.9003L500.799 47.8565L500.753 48.8555ZM495.092 48.5838L495.142 47.5851L494.092 47.5322V48.5838H495.092ZM477.929 96.9426L476.93 96.9941L476.979 97.9426H477.929V96.9426ZM477.57 89.9695V88.9695H476.517L476.571 90.021L477.57 89.9695ZM482.692 96.9426V97.9426H483.654L483.691 96.9813L482.692 96.9426ZM482.961 89.9695L483.96 90.0082L484.001 88.9695H482.961V89.9695ZM531.754 96.9426L530.755 96.9813L530.792 97.9426H531.754V96.9426ZM531.484 89.9695V88.9695H530.445L530.485 90.0082L531.484 89.9695ZM536.516 96.9426V97.9426H537.466L537.515 96.9941L536.516 96.9426ZM536.876 89.9695L537.874 90.021L537.929 88.9695H536.876V89.9695ZM480.265 81.0041L481.161 81.4486L481.21 81.3508L481.236 81.2449L480.265 81.0041ZM479.996 80.008L480.706 79.3036L480.67 79.2672L480.63 79.2347L479.996 80.008ZM467.955 81.0041L468.926 80.7634L468.899 80.6575L468.851 80.5597L467.955 81.0041ZM468.225 80.008L467.59 79.2347L467.551 79.2672L467.515 79.3036L468.225 80.008ZM473.526 75.6612L472.923 74.8634L472.907 74.8753L472.892 74.8879L473.526 75.6612ZM474.694 75.6612L475.328 74.8879L475.313 74.8753L475.297 74.8634L474.694 75.6612ZM539.661 75.6612L539.058 74.8634L539.043 74.8753L539.027 74.8879L539.661 75.6612ZM540.829 75.6612L541.464 74.8879L541.448 74.8753L541.432 74.8634L540.829 75.6612ZM534.36 80.008L533.726 79.2347L533.686 79.2672L533.65 79.3036L534.36 80.008ZM534.09 81.0041L535.061 80.7634L535.034 80.6575L534.986 80.5597L534.09 81.0041ZM546.131 80.008L546.841 79.3036L546.805 79.2672L546.765 79.2347L546.131 80.008ZM551.162 23.3303C551.169 23.3271 550.868 23.4698 550.27 23.7282C549.682 23.9823 548.82 24.3423 547.712 24.7726C545.496 25.6334 542.295 26.7751 538.329 27.9147C530.394 30.1949 519.414 32.4604 507.133 32.4604V34.4604C532.147 34.4604 551.805 25.2458 552.062 25.1163L551.162 23.3303ZM552.184 22.7273L551.105 23.3612L552.119 25.0853L553.197 24.4514L552.184 22.7273ZM553.691 35.6338V23.5894H551.691V35.6338H553.691ZM552.759 36.7612L553.208 36.4895L552.173 34.7781L551.724 35.0498L552.759 36.7612ZM546.809 39.208C548.728 38.5634 550.195 37.9631 551.188 37.5208C551.684 37.2997 552.063 37.1181 552.319 36.9902C552.448 36.9262 552.546 36.8757 552.613 36.8404C552.647 36.8227 552.673 36.8089 552.691 36.799C552.7 36.7941 552.708 36.7902 552.713 36.7873C552.716 36.7859 552.718 36.7847 552.719 36.7838C552.72 36.7833 552.721 36.7829 552.722 36.7826C552.722 36.7824 552.722 36.7823 552.722 36.7822C552.722 36.7821 552.723 36.782 552.723 36.782C552.723 36.7819 552.723 36.7818 552.241 35.9055C551.76 35.0292 551.76 35.0291 551.76 35.029C551.76 35.029 551.76 35.029 551.76 35.0289C551.76 35.0289 551.76 35.0288 551.76 35.0288C551.76 35.0287 551.76 35.0287 551.76 35.0288C551.76 35.0289 551.759 35.0293 551.758 35.03C551.756 35.0313 551.751 35.0336 551.745 35.037C551.733 35.0437 551.712 35.0544 551.685 35.0689C551.629 35.098 551.543 35.1423 551.428 35.2C551.196 35.3155 550.844 35.4848 550.374 35.6938C549.435 36.1119 548.027 36.6889 546.172 37.3121L546.809 39.208ZM544.873 39.7883C546.004 39.4717 546.72 39.2459 546.864 39.1875L546.117 37.3326C546.125 37.3291 545.99 37.3759 545.655 37.4781C545.345 37.5726 544.902 37.7034 544.334 37.8623L544.873 39.7883ZM545.603 44.4181V38.8253H543.603V44.4181H545.603ZM544.251 45.5601L544.88 45.379L544.327 43.4571L543.698 43.6382L544.251 45.5601ZM544.008 45.6312C544.073 45.6116 544.124 45.5965 544.163 45.585C544.206 45.5722 544.22 45.5686 544.219 45.5689L543.73 43.6295C543.661 43.6468 543.546 43.6817 543.433 43.7156L544.008 45.6312ZM543.963 45.6435L543.963 45.6435L543.478 43.7032L543.478 43.7033L543.963 45.6435ZM543.963 45.6436L543.963 45.6435L543.478 43.7033L543.478 43.7033L543.963 45.6436ZM532.539 48.1226C539.208 47.0699 542.97 45.9427 544.008 45.6312L543.433 43.7156C542.456 44.0088 538.785 45.1119 532.227 46.1471L532.539 48.1226ZM533.383 52.0251V47.1349H531.383V52.0251H533.383ZM529.507 53.0251H532.383V51.0251H529.507V53.0251ZM530.863 56.1049L530.504 51.9391L528.511 52.1111L528.871 56.2768L530.863 56.1049ZM537.774 55.1908H529.867V57.1908H537.774V55.1908ZM540.021 55.1908H537.774V57.1908H540.021V55.1908ZM541.919 57.0964C541.919 56.5998 541.751 56.1072 541.382 55.7355C541.013 55.3631 540.52 55.1908 540.021 55.1908V57.1908C540.043 57.1908 540.043 57.1945 540.027 57.1883C540.01 57.1818 539.986 57.168 539.962 57.1442C539.939 57.1205 539.926 57.0969 539.92 57.0822C539.915 57.0685 539.919 57.0709 539.919 57.0964H541.919ZM540.021 59.002C540.52 59.002 541.013 58.8297 541.382 58.4573C541.751 58.0856 541.919 57.593 541.919 57.0964H539.919C539.919 57.1219 539.915 57.1243 539.92 57.1106C539.926 57.0959 539.939 57.0723 539.962 57.0486C539.986 57.0249 540.01 57.011 540.027 57.0045C540.043 56.9983 540.043 57.002 540.021 57.002V59.002ZM537.774 59.002H540.021V57.002H537.774V59.002ZM538.774 62.53V58.002H536.774V62.53H538.774ZM530.316 63.53H537.774V61.53H530.316V63.53ZM532.394 88.0256L531.315 62.4878L529.317 62.5722L530.395 88.11L532.394 88.0256ZM536.966 87.0678H531.394V89.0678H536.966V87.0678ZM536.146 83.6796L535.966 88.0265L537.965 88.1091L538.144 83.7622L536.146 83.6796ZM536.606 84.7209H537.145V82.7209H536.606V84.7209ZM534.708 82.8153C534.708 83.3119 534.876 83.8045 535.245 84.1762C535.614 84.5487 536.107 84.7209 536.606 84.7209V82.7209C536.584 82.7209 536.584 82.7173 536.6 82.7234C536.617 82.73 536.641 82.7438 536.665 82.7675C536.688 82.7913 536.701 82.8149 536.706 82.8295C536.712 82.8433 536.708 82.8408 536.708 82.8153H534.708ZM536.606 80.9097C536.107 80.9097 535.614 81.082 535.245 81.4544C534.876 81.8262 534.708 82.3187 534.708 82.8153H536.708C536.708 82.7899 536.712 82.7874 536.706 82.8012C536.701 82.8158 536.688 82.8394 536.665 82.8631C536.641 82.8869 536.617 82.9007 536.6 82.9072C536.584 82.9134 536.584 82.9097 536.606 82.9097V80.9097ZM537.235 80.9097H536.606V82.9097H537.235V80.9097ZM543.345 80.9097H537.235V82.9097H543.345V80.9097ZM543.975 80.9097H543.345V82.9097H543.975V80.9097ZM546.143 82.8153C546.143 82.1207 545.736 81.6229 545.337 81.3417C544.942 81.0625 544.448 80.9097 543.975 80.9097V82.9097C544 82.9097 544.039 82.9145 544.084 82.9286C544.129 82.9427 544.163 82.9611 544.184 82.9759C544.206 82.9911 544.198 82.9919 544.182 82.9657C544.163 82.9344 544.143 82.8805 544.143 82.8153H546.143ZM544.244 84.7209C544.743 84.7209 545.236 84.5487 545.605 84.1762C545.974 83.8045 546.143 83.3119 546.143 82.8153H544.143C544.143 82.8408 544.139 82.8433 544.144 82.8295C544.149 82.8149 544.162 82.7913 544.186 82.7675C544.209 82.7438 544.234 82.73 544.251 82.7234C544.266 82.7173 544.267 82.7209 544.244 82.7209V84.7209ZM543.705 84.7209H544.244V82.7209H543.705V84.7209ZM545.872 106.219L544.704 83.6692L542.706 83.7727L543.874 106.322L545.872 106.219ZM536.247 107.27H544.873V105.27H536.247V107.27ZM535.607 98.7061L535.248 106.222L537.246 106.318L537.605 98.8016L535.607 98.7061ZM532.023 99.7538H536.606V97.7538H532.023V99.7538ZM533.292 106.234L533.023 98.718L531.024 98.7897L531.294 106.306L533.292 106.234ZM519.713 107.27H532.293V105.27H519.713V107.27ZM520.511 62.5794L518.714 106.229L520.712 106.311L522.509 62.6617L520.511 62.5794ZM493.115 63.6206H521.51V61.6206H493.115V63.6206ZM495.911 106.229L494.114 62.5794L492.116 62.6617L493.913 106.311L495.911 106.229ZM482.332 107.27H494.912V105.27H482.332V107.27ZM481.602 98.718L481.333 106.234L483.331 106.306L483.601 98.7897L481.602 98.718ZM478.019 99.7538H482.602V97.7538H478.019V99.7538ZM479.377 106.222L479.018 98.7061L477.02 98.8016L477.38 106.318L479.377 106.222ZM469.752 107.27H478.378V105.27H469.752V107.27ZM469.922 83.6692L468.753 106.219L470.751 106.322L471.919 83.7727L469.922 83.6692ZM470.381 84.7209H470.92V82.7209H470.381V84.7209ZM468.483 82.8153C468.483 83.3119 468.651 83.8045 469.02 84.1762C469.389 84.5487 469.882 84.7209 470.381 84.7209V82.7209C470.359 82.7209 470.359 82.7173 470.375 82.7234C470.391 82.73 470.416 82.7438 470.439 82.7675C470.463 82.7913 470.476 82.8149 470.481 82.8295C470.487 82.8433 470.483 82.8408 470.483 82.8153H468.483ZM470.381 80.9097C469.882 80.9097 469.389 81.082 469.02 81.4544C468.651 81.8262 468.483 82.3187 468.483 82.8153H470.483C470.483 82.7899 470.487 82.7874 470.481 82.8012C470.476 82.8158 470.463 82.8394 470.439 82.8631C470.416 82.8869 470.391 82.9007 470.375 82.9072C470.359 82.9134 470.359 82.9097 470.381 82.9097V80.9097ZM471.01 80.9097H470.381V82.9097H471.01V80.9097ZM477.12 80.9097H471.01V82.9097H477.12V80.9097ZM477.929 80.9097H477.12V82.9097H477.929V80.9097ZM479.828 82.8153C479.828 82.3187 479.659 81.8262 479.29 81.4544C478.921 81.082 478.428 80.9097 477.929 80.9097V82.9097C477.952 82.9097 477.952 82.9134 477.936 82.9072C477.919 82.9007 477.894 82.8869 477.871 82.8631C477.847 82.8394 477.834 82.8158 477.829 82.8012C477.824 82.7874 477.828 82.7899 477.828 82.8153H479.828ZM477.929 84.7209C478.428 84.7209 478.921 84.5487 479.29 84.1762C479.659 83.8045 479.828 83.3119 479.828 82.8153H477.828C477.828 82.8408 477.824 82.8433 477.829 82.8295C477.834 82.8149 477.847 82.7913 477.871 82.7675C477.894 82.7438 477.919 82.73 477.936 82.7234C477.952 82.7173 477.952 82.7209 477.929 82.7209V84.7209ZM477.39 84.7209H477.929V82.7209H477.39V84.7209ZM478.569 88.0265L478.389 83.6796L476.391 83.7622L476.571 88.1091L478.569 88.0265ZM483.141 87.0678H477.57V89.0678H483.141V87.0678ZM483.22 62.4878L482.142 88.0256L484.14 88.11L485.218 62.5722L483.22 62.4878ZM476.671 63.53H484.219V61.53H476.671V63.53ZM475.671 58.002V62.53H477.671V58.002H475.671ZM474.425 59.002H476.671V57.002H474.425V59.002ZM472.526 57.0964C472.526 57.593 472.695 58.0856 473.063 58.4573C473.433 58.8297 473.926 59.002 474.425 59.002V57.002C474.402 57.002 474.402 56.9983 474.418 57.0045C474.435 57.011 474.459 57.0248 474.483 57.0486C474.507 57.0723 474.519 57.0959 474.525 57.1106C474.53 57.1243 474.526 57.1219 474.526 57.0964H472.526ZM474.425 55.1908C473.926 55.1908 473.433 55.3631 473.063 55.7355C472.695 56.1072 472.526 56.5998 472.526 57.0964H474.526C474.526 57.0709 474.53 57.0685 474.525 57.0822C474.519 57.0969 474.507 57.1205 474.483 57.1442C474.459 57.168 474.435 57.1818 474.418 57.1883C474.402 57.1945 474.402 57.1908 474.425 57.1908V55.1908ZM476.671 55.1908H474.425V57.1908H476.671V55.1908ZM484.579 55.1908H476.671V57.1908H484.579V55.1908ZM483.942 51.9391L483.582 56.1049L485.575 56.2768L485.934 52.1111L483.942 51.9391ZM482.063 53.0251H484.938V51.0251H482.063V53.0251ZM481.063 47.1349V52.0251H483.063V47.1349H481.063ZM470.152 45.5471C470.474 45.6551 474.392 46.9364 481.907 48.1226L482.219 46.1471C474.817 44.9787 471.007 43.7244 470.789 43.6513L470.152 45.5471ZM469.565 45.379L470.194 45.5601L470.748 43.6382L470.119 43.4571L469.565 45.379ZM468.842 38.9173V44.4181H470.842V38.9173H468.842ZM468.548 39.6035C468.822 39.6783 469.17 39.7729 469.584 39.8835L470.1 37.9511C469.691 37.842 469.348 37.7486 469.074 37.6739L468.548 39.6035ZM468.045 39.4412C467.985 39.4412 467.941 39.4355 467.927 39.4338C467.909 39.4314 467.895 39.429 467.891 39.4281C467.881 39.4264 467.88 39.426 467.892 39.4287C467.915 39.434 467.955 39.4439 468.017 39.4601C468.139 39.492 468.314 39.5398 468.548 39.6035L469.074 37.6739C468.845 37.6114 468.657 37.5604 468.523 37.5251C468.456 37.5077 468.394 37.4919 468.341 37.4798C468.316 37.4739 468.284 37.4669 468.251 37.4608C468.239 37.4587 468.15 37.4412 468.045 37.4412V39.4412ZM467.46 39.289C467.473 39.2955 467.543 39.332 467.624 39.3625C467.709 39.3945 467.857 39.4412 468.045 39.4412V37.4412C468.187 37.4412 468.291 37.4765 468.331 37.4916C468.367 37.505 468.392 37.5189 468.36 37.5028L467.46 39.289ZM467.775 39.3506C467.633 39.3506 467.529 39.3153 467.489 39.3002C467.453 39.2867 467.428 39.2728 467.46 39.289L468.36 37.5028C468.347 37.4963 468.277 37.4598 468.196 37.4293C468.111 37.3973 467.963 37.3506 467.775 37.3506V39.3506ZM461.774 36.9697C462.526 37.3286 464.419 38.2306 467.444 39.294L468.107 37.4072C465.176 36.3767 463.354 35.5076 462.634 35.1644L461.774 36.9697ZM461.845 36.9055C461.79 36.9055 461.745 36.9009 461.715 36.8969C461.684 36.8928 461.658 36.8878 461.639 36.8838C461.603 36.8759 461.575 36.8676 461.56 36.863C461.544 36.8579 461.531 36.8535 461.524 36.8509C461.517 36.8482 461.511 36.8461 461.509 36.8451C461.504 36.8433 461.504 36.843 461.51 36.8456C461.515 36.8479 461.523 36.8516 461.535 36.8569C461.558 36.8676 461.59 36.8822 461.631 36.9017C461.671 36.9209 461.718 36.9434 461.774 36.9697L462.634 35.1644C462.529 35.114 462.435 35.0691 462.365 35.0374C462.332 35.0221 462.29 35.0034 462.249 34.987C462.229 34.9792 462.195 34.966 462.154 34.9533C462.147 34.951 462.014 34.9055 461.845 34.9055V36.9055ZM460.878 36.4895L461.327 36.7612L462.362 35.0498L461.913 34.7781L460.878 36.4895ZM460.395 23.5894V35.6338H462.395V23.5894H460.395ZM463.103 23.3302L461.845 22.6963L460.945 24.4824L462.203 25.1163L463.103 23.3302ZM507.133 32.4604C494.851 32.4604 483.872 30.1949 475.936 27.9147C471.971 26.7751 468.77 25.6334 466.554 24.7726C465.445 24.3423 464.584 23.9823 463.996 23.7282C463.398 23.4698 463.097 23.3271 463.103 23.3302L462.203 25.1163C462.46 25.2458 482.118 34.4604 507.133 34.4604V32.4604ZM514.603 56.2814V48.8555H512.603V56.2814H514.603ZM521.78 55.2814H513.603V57.2814H521.78V55.2814ZM521.143 52.0297L520.783 56.1954L522.776 56.3673L523.135 52.2016L521.143 52.0297ZM519.264 53.1156H522.139V51.1156H519.264V53.1156ZM518.264 48.5838V52.1156H520.264V48.5838H518.264ZM513.648 49.8545C515.627 49.7638 517.515 49.6732 519.314 49.5826L519.213 47.5851C517.418 47.6756 515.532 47.766 513.557 47.8565L513.648 49.8545ZM492.216 53.1156H495.092V51.1156H492.216V53.1156ZM493.572 56.1954L493.213 52.0297L491.22 52.2016L491.58 56.3674L493.572 56.1954ZM500.753 55.2814H492.576V57.2814H500.753V55.2814ZM499.753 48.8555V56.2814H501.753V48.8555H499.753ZM495.042 49.5826C496.84 49.6732 498.729 49.7638 500.707 49.8545L500.799 47.8565C498.823 47.766 496.938 47.6756 495.142 47.5851L495.042 49.5826ZM496.092 52.1156V48.5838H494.092V52.1156H496.092ZM478.928 96.8912L478.568 89.9181L476.571 90.021L476.93 96.9941L478.928 96.8912ZM482.692 95.9426H477.929V97.9426H482.692V95.9426ZM481.962 89.9309L481.692 96.904L483.691 96.9813L483.96 90.0082L481.962 89.9309ZM477.57 90.9695H482.961V88.9695H477.57V90.9695ZM532.753 96.904L532.484 89.9309L530.485 90.0082L530.755 96.9813L532.753 96.904ZM536.516 95.9426H531.754V97.9426H536.516V95.9426ZM535.877 89.9181L535.518 96.8912L537.515 96.9941L537.874 90.021L535.877 89.9181ZM531.484 90.9695H536.876V88.9695H531.484V90.9695ZM481.236 81.2449C481.406 80.5595 481.232 79.8345 480.706 79.3036L479.286 80.7123C479.294 80.7208 479.298 80.726 479.298 80.7273C479.299 80.7285 479.299 80.7285 479.299 80.7279C479.299 80.7274 479.299 80.7291 479.299 80.7339C479.299 80.7388 479.299 80.7485 479.295 80.7634L481.236 81.2449ZM479.457 82.6381C480.394 82.6381 480.924 81.927 481.161 81.4486L479.37 80.5597C479.346 80.6066 479.325 80.6407 479.308 80.6638C479.291 80.687 479.282 80.6938 479.285 80.6912C479.289 80.6879 479.307 80.6736 479.341 80.6602C479.377 80.6461 479.417 80.6381 479.457 80.6381V82.6381ZM468.764 82.6381H479.457V80.6381H468.764V82.6381ZM466.984 81.2449C467.187 82.0603 467.952 82.6381 468.764 82.6381V80.6381C468.832 80.6381 468.863 80.6607 468.871 80.6666C468.88 80.6735 468.91 80.6999 468.926 80.7634L466.984 81.2449ZM467.515 79.3036C467.147 79.6744 466.587 80.4965 467.059 81.4486L468.851 80.5597C468.867 80.5916 468.88 80.6361 468.882 80.6867C468.885 80.735 468.876 80.7699 468.871 80.7861C468.866 80.8008 468.864 80.7992 468.875 80.7825C468.886 80.766 468.905 80.7418 468.934 80.7123L467.515 79.3036ZM472.892 74.8879L467.59 79.2347L468.859 80.7813L474.16 76.4345L472.892 74.8879ZM475.297 74.8634C474.581 74.3221 473.639 74.3221 472.923 74.8634L474.129 76.4589C474.139 76.4517 474.141 76.4517 474.136 76.4535C474.131 76.4553 474.122 76.4574 474.11 76.4574C474.098 76.4574 474.089 76.4553 474.084 76.4535C474.079 76.4517 474.082 76.4517 474.091 76.4589L475.297 74.8634ZM480.63 79.2347L475.328 74.8879L474.06 76.4345L479.362 80.7813L480.63 79.2347ZM540.264 76.4589C540.274 76.4517 540.277 76.4517 540.271 76.4535C540.266 76.4553 540.257 76.4574 540.245 76.4574C540.234 76.4574 540.224 76.4553 540.219 76.4535C540.214 76.4517 540.217 76.4517 540.226 76.4589L541.432 74.8634C540.716 74.3221 539.774 74.3221 539.058 74.8634L540.264 76.4589ZM534.994 80.7813L540.295 76.4345L539.027 74.8879L533.726 79.2347L534.994 80.7813ZM534.986 80.5597C535.002 80.5916 535.015 80.6361 535.017 80.6867C535.02 80.735 535.011 80.7699 535.006 80.7861C535.001 80.8008 534.999 80.7992 535.01 80.7825C535.021 80.766 535.04 80.7418 535.07 80.7123L533.65 79.3036C533.282 79.6744 532.722 80.4965 533.194 81.4486L534.986 80.5597ZM534.899 80.6381C534.967 80.6381 534.998 80.6607 535.006 80.6666C535.015 80.6735 535.045 80.6999 535.061 80.7634L533.12 81.2449C533.322 82.0603 534.087 82.6381 534.899 82.6381V80.6381ZM545.592 80.6381H534.899V82.6381H545.592V80.6381ZM545.43 80.7634C545.446 80.6999 545.476 80.6735 545.485 80.6666C545.492 80.6607 545.524 80.6381 545.592 80.6381V82.6381C546.404 82.6381 547.169 82.0603 547.371 81.2449L545.43 80.7634ZM545.421 80.7123C545.43 80.7208 545.433 80.726 545.433 80.7273C545.434 80.7285 545.434 80.7285 545.434 80.7279C545.434 80.7274 545.434 80.7291 545.434 80.7339C545.434 80.7388 545.434 80.7485 545.43 80.7634L547.371 81.2449C547.541 80.5595 547.368 79.8345 546.841 79.3036L545.421 80.7123ZM540.195 76.4345L545.497 80.7813L546.765 79.2347L541.464 74.8879L540.195 76.4345Z" fill="#BDBDBD" mask="url(#path-14-inside-1_4_216)"/>
<path d="M282.919 98.9348V66.7187V60.0306C282.919 59.4654 283.264 59.0886 283.781 59.0886C284.298 59.0886 284.643 59.4654 284.643 60.0306V65.7768H290.85V60.0306C290.85 59.4654 291.194 59.0886 291.712 59.0886C292.229 59.0886 292.574 59.4654 292.574 60.0306V65.7768H312.572" stroke="#BDBDBD"/>
<path d="M295.859 64.16V56.0097C295.409 56.0097 295.05 55.5569 295.05 55.1041C295.05 54.6513 295.409 54.1985 295.859 54.1985V53.0212C295.859 50.395 298.734 47.5876 301.789 45.9576V43.7841C301.789 43.2408 302.149 42.8785 302.688 42.8785C303.227 42.8785 303.586 43.2408 303.586 43.7841V45.9576C306.552 47.5876 309.517 50.4855 309.517 52.9307V54.1079C309.966 54.1079 310.416 54.6513 310.416 55.1041C310.416 55.5569 310.056 56.0097 309.607 56.0097V64.16M303.766 63.1639H301.52V61.081C301.52 60.4471 301.969 59.3604 302.598 58.6359C303.227 59.4509 303.766 60.5377 303.766 61.081V63.1639Z" stroke="#BDBDBD"/>
<path d="M268.426 98.9348C268.426 98.754 268.513 94.3241 268.687 88.0861H268.513C267.991 88.0861 267.643 87.7244 267.643 87.182C267.643 86.6396 267.991 86.2779 268.513 86.2779H268.687C268.774 81.9385 268.948 76.9661 269.035 72.0842H268.948C268.426 72.0842 268.078 71.7226 268.078 71.1801C268.078 70.6377 268.426 70.2761 268.948 70.2761H269.122C269.296 65.3941 269.383 60.693 269.47 57.0768C269.035 56.9863 268.687 56.6247 268.687 56.1727C268.687 55.7207 269.035 55.2686 269.47 55.2686C269.556 54.2742 269.556 53.2797 269.556 52.5564C269.035 52.5564 268.687 52.1948 268.687 51.6524C268.687 51.1099 269.035 50.7483 269.556 50.7483H269.643C269.643 50.5675 269.643 50.4771 269.643 50.3867C269.643 49.121 270.861 47.7649 272.165 47.0417V46.4088C272.165 45.8664 272.513 45.5048 273.035 45.5048C273.557 45.5048 273.904 45.8664 273.904 46.4088V47.0417C275.035 47.7649 276.426 49.121 276.426 50.3867C276.426 50.4771 276.426 50.5675 276.426 50.7483H276.513C277.035 50.7483 277.383 51.1099 277.383 51.6524C277.383 52.1948 277.035 52.5564 276.513 52.5564C276.513 53.2797 276.6 54.1838 276.6 55.2686C277.035 55.2686 277.383 55.7207 277.383 56.1727C277.383 56.6247 277.035 56.9863 276.6 57.0768C276.687 60.6026 276.861 65.3037 276.948 70.2761H277.122C277.644 70.2761 277.991 70.6377 277.991 71.1801C277.991 71.7226 277.644 72.0842 277.122 72.0842H277.035C277.122 76.9661 277.296 81.9385 277.383 86.2779H277.557C278.078 86.2779 278.426 86.6396 278.426 87.182C278.426 87.7244 277.991 88.0861 277.47 88.0861H277.296C277.47 94.3241 277.557 98.754 277.557 98.9348M274.861 55.2686H273.991V52.5564H274.774C274.774 53.2797 274.861 54.2742 274.861 55.2686ZM272.252 52.5564V55.2686H271.383C271.383 54.1838 271.47 53.2797 271.47 52.5564H272.252Z" stroke="#BDBDBD"/>
<path d="M346.808 65.6089H367.655V60.0848C367.655 59.5414 368.014 59.1792 368.553 59.1792C369.093 59.1792 369.452 59.5414 369.452 60.0848V65.6089H375.922V60.0848C375.922 59.5414 376.281 59.1792 376.82 59.1792C377.27 59.1792 377.719 59.5414 377.719 60.0848V65.6089V66.5145V98.9348" stroke="#BDBDBD"/>
<path d="M350.133 63.9789V55.8285C349.683 55.8285 349.324 55.3757 349.324 54.9229C349.324 54.4701 349.683 54.0173 350.133 54.0173V52.8401C350.133 50.395 353.098 47.4971 356.063 45.867V43.6936C356.063 43.1502 356.423 42.788 356.962 42.788C357.501 42.788 357.86 43.1502 357.86 43.6936V45.867C360.826 47.4971 363.791 50.3044 363.791 52.9306V54.1079C364.24 54.1079 364.69 54.4701 364.69 54.9229C364.69 55.3757 364.33 55.8285 363.881 55.8285V63.9789M358.04 63.1638H355.794V61.081C355.794 60.5376 356.333 59.3603 356.962 58.6359C357.591 59.3603 358.04 60.4471 358.04 61.081V63.1638Z" stroke="#BDBDBD"/>
<path d="M246.078 106.18V95.4144C246.078 94.8716 246.417 94.5097 246.926 94.5097H247.775C247.775 92.4291 247.945 86.8203 248.114 79.6736H247.52C247.011 79.6736 246.672 79.3117 246.672 78.7689C246.672 78.2261 247.011 77.8643 247.52 77.8643H248.114C248.284 71.5318 248.454 64.2042 248.623 57.0575H248.114C247.605 57.0575 247.266 56.6956 247.266 56.1529C247.266 55.6101 247.605 55.2482 248.114 55.2482H248.623C248.793 47.9206 248.963 41.0453 249.048 35.7984H248.793C248.284 35.7984 247.945 35.4365 247.945 34.8937C247.945 34.3509 248.284 33.9891 248.793 33.9891H249.048C249.048 32.1798 249.133 30.5514 249.133 29.3754H248.708C248.199 29.3754 247.86 29.0135 247.86 28.4707C247.86 27.928 248.199 27.5661 248.708 27.5661H249.133C249.133 27.1138 249.133 26.7519 249.133 26.6615C249.133 24.9426 250.83 23.2238 252.612 22.1382V21.0527C252.612 20.5099 252.952 20.148 253.461 20.148C253.97 20.148 254.309 20.5099 254.309 21.0527V22.1382C255.837 23.1334 257.789 24.9426 257.789 26.6615C257.789 26.7519 257.789 27.1138 257.789 27.5661H258.213C258.722 27.5661 259.062 27.928 259.062 28.4707C259.062 29.0135 258.722 29.3754 258.213 29.3754H257.789C257.789 30.5514 257.874 32.1798 257.874 33.9891H258.128C258.638 33.9891 258.977 34.3509 258.977 34.8937C258.977 35.4365 258.638 35.7984 258.128 35.7984H257.874C257.959 41.0453 258.128 47.9206 258.298 55.2482H258.807C259.317 55.2482 259.656 55.6101 259.656 56.1529C259.656 56.6956 259.317 57.0575 258.807 57.0575H258.298C258.468 64.1137 258.638 71.5318 258.807 77.8643H259.401C259.911 77.8643 260.25 78.2261 260.25 78.7689C260.25 79.3117 259.911 79.6736 259.401 79.6736H258.807C258.977 86.8203 259.062 92.4291 259.147 94.5097H259.995C260.42 94.5097 260.844 94.9621 261.353 95.4144V98.9349M256.007 33.9891H254.055V29.3754H255.837C255.922 30.5514 255.922 32.0893 256.007 33.9891ZM250.491 29.3754H252.273V33.9891H250.321C250.491 32.0893 250.491 30.5514 250.491 29.3754Z" stroke="#BDBDBD"/>
<path d="M344.921 50.9384H314.369V52.7495H344.921V50.9384Z" stroke="#BDBDBD"/>
<path d="M312.572 65.8806V43.3862C312.572 37.4864 319.49 29.6805 328.714 25.0514V20.1501C328.714 19.6055 329.069 19.2424 329.601 19.2424C330.133 19.2424 330.488 19.6055 330.488 20.1501V25.1422C338.47 29.499 346.629 37.3956 346.718 43.4769V65.8806M317.273 39.2109C318.248 37.2141 324.811 29.9528 329.335 28.9544C329.778 28.8636 330.31 29.1359 330.399 29.6805C330.488 30.1343 330.222 30.6789 329.689 30.7697C325.964 31.6774 319.667 38.3033 318.78 40.1186C318.603 40.4816 318.337 40.6632 317.982 40.6632C317.805 40.6632 317.716 40.6632 317.628 40.5724C317.273 40.2093 317.095 39.6647 317.273 39.2109ZM316.12 43.1139C316.12 42.5693 316.475 42.2062 317.007 42.2062C317.539 42.2062 317.894 42.5693 317.894 43.1139V44.8384C317.894 45.383 317.539 45.7461 317.007 45.7461C316.475 45.7461 316.12 45.383 316.12 44.8384V43.1139Z" stroke="#BDBDBD"/>
<path d="M391.166 99C391.166 98.8206 391.078 94.4264 390.902 88.2386H391.078C391.606 88.2386 391.958 87.8799 391.958 87.3418C391.958 86.8037 391.606 86.445 391.078 86.445H390.902C390.814 82.1404 390.638 77.2081 390.55 72.3655H390.638C391.166 72.3655 391.518 72.0068 391.518 71.4687C391.518 70.9306 391.166 70.5719 390.638 70.5719H390.462C390.286 65.7293 390.198 61.066 390.109 57.4788C390.55 57.3892 390.902 57.0305 390.902 56.5821C390.902 56.1337 390.55 55.6853 390.109 55.6853C390.021 54.6988 390.021 53.7124 390.021 52.9949C390.55 52.9949 390.902 52.6362 390.902 52.0981C390.902 51.5601 390.55 51.2014 390.021 51.2014H389.933C389.933 51.022 389.933 50.9323 389.933 50.8426C389.933 49.5871 388.701 48.242 387.381 47.5245V46.8968C387.381 46.3587 387.029 46 386.501 46C385.972 46 385.62 46.3587 385.62 46.8968V47.5245C384.476 48.242 383.068 49.5871 383.068 50.8426C383.068 50.9323 383.068 51.022 383.068 51.2014H382.98C382.452 51.2014 382.1 51.5601 382.1 52.0981C382.1 52.6362 382.452 52.9949 382.98 52.9949C382.98 53.7124 382.892 54.6091 382.892 55.6853C382.452 55.6853 382.1 56.1337 382.1 56.5821C382.1 57.0305 382.452 57.3892 382.892 57.4788C382.804 60.9763 382.628 65.6396 382.54 70.5719H382.364C381.835 70.5719 381.483 70.9306 381.483 71.4687C381.483 72.0068 381.835 72.3655 382.364 72.3655H382.452C382.364 77.2081 382.188 82.1404 382.1 86.445H381.923C381.395 86.445 381.043 86.8037 381.043 87.3418C381.043 87.8799 381.483 88.2386 382.011 88.2386H382.188C382.011 94.4264 381.923 98.8206 381.923 99M384.652 55.6853H385.532V52.9949H384.74C384.74 53.7124 384.652 54.6988 384.652 55.6853ZM387.293 52.9949V55.6853H388.173C388.173 54.6091 388.085 53.7124 388.085 52.9949H387.293Z" stroke="#BDBDBD"/>
<path d="M413.787 106V95.2387C413.787 94.6961 413.435 94.3344 412.905 94.3344H412.023C412.023 92.2545 411.847 86.6477 411.671 79.5037H412.288C412.817 79.5037 413.17 79.142 413.17 78.5994C413.17 78.0568 412.817 77.6951 412.288 77.6951H411.671C411.494 71.3649 411.318 64.04 411.141 56.8959H411.671C412.2 56.8959 412.553 56.5342 412.553 55.9916C412.553 55.449 412.2 55.0873 411.671 55.0873H411.141C410.965 47.7624 410.789 40.8896 410.7 35.6446H410.965C411.494 35.6446 411.847 35.2829 411.847 34.7403C411.847 34.1977 411.494 33.836 410.965 33.836H410.7C410.7 32.0273 410.612 30.3996 410.612 29.224H411.053C411.582 29.224 411.935 28.8623 411.935 28.3197C411.935 27.7771 411.582 27.4154 411.053 27.4154H410.612C410.612 26.9632 410.612 26.6015 410.612 26.511C410.612 24.7929 408.848 23.0747 406.996 21.9895V20.9043C406.996 20.3617 406.643 20 406.114 20C405.585 20 405.232 20.3617 405.232 20.9043V21.9895C403.644 22.9842 401.616 24.7929 401.616 26.511C401.616 26.6015 401.616 26.9632 401.616 27.4154H401.175C400.646 27.4154 400.293 27.7771 400.293 28.3197C400.293 28.8623 400.646 29.224 401.175 29.224H401.616C401.616 30.3996 401.528 32.0273 401.528 33.836H401.263C400.734 33.836 400.381 34.1977 400.381 34.7403C400.381 35.2829 400.734 35.6446 401.263 35.6446H401.528C401.439 40.8896 401.263 47.7624 401.087 55.0873H400.557C400.028 55.0873 399.675 55.449 399.675 55.9916C399.675 56.5342 400.028 56.8959 400.557 56.8959H401.087C400.91 63.9495 400.734 71.3649 400.557 77.6951H399.94C399.411 77.6951 399.058 78.0568 399.058 78.5994C399.058 79.142 399.411 79.5037 399.94 79.5037H400.557C400.381 86.6477 400.293 92.2545 400.205 94.3344H399.323C398.882 94.3344 398.441 94.7865 397.911 95.2387V98.7579M403.468 33.836H405.497V29.224H403.644C403.556 30.3996 403.556 31.9369 403.468 33.836ZM409.201 29.224H407.349V33.836H409.377C409.201 31.9369 409.201 30.3996 409.201 29.224Z" stroke="#BDBDBD"/>
<line x1="263.02" y1="98.5" x2="270.02" y2="98.5" stroke="#BDBDBD"/>
<line x1="279.02" y1="98.5" x2="284.02" y2="98.5" stroke="#BDBDBD"/>
<line y1="-0.5" x2="7" y2="-0.5" transform="matrix(-1 0 0 1 401.02 99)" stroke="#BDBDBD"/>
<line y1="-0.5" x2="5" y2="-0.5" transform="matrix(-1 0 0 1 385.02 99)" stroke="#BDBDBD"/>
<path d="M600.31 97.3636V85.5455C600.31 85 600.669 84.6364 601.208 84.6364H605.699V62.8182C602.915 62.1818 600.849 59.6364 600.849 56.6364C600.849 50 611.267 43.4545 613.692 42V37H611.536C610.998 37 610.638 36.6364 610.638 36.0909C610.638 35.5455 610.998 35.1818 611.536 35.1818H613.692V32.5455C613.692 32 614.051 31.6364 614.59 31.6364C615.129 31.6364 615.488 32 615.488 32.5455V35.1818H617.644C618.182 35.1818 618.542 35.5455 618.542 36.0909C618.542 36.6364 618.182 37 617.644 37H615.488V42C617.823 43.4545 628.331 50 628.331 56.6364C628.331 59.6364 626.265 62.0909 623.481 62.8182V65.8182C625.547 63.1818 628.96 61 630.217 60.2727V43.9091H626.984C626.445 43.9091 626.086 43.5455 626.086 43C626.086 42.4545 626.445 42.0909 626.984 42.0909H630.217L634.797 17.5455C633.899 16.8182 633.36 15.8182 633.36 14.7273C633.36 12.9091 634.887 11.3636 636.953 11V6.36364H634.797C634.259 6.36364 633.899 6 633.899 5.45455C633.899 4.90909 634.259 4.54545 634.797 4.54545H636.953V1.90909C636.953 1.36364 637.312 1 637.851 1C638.39 1 638.749 1.36364 638.749 1.90909V4.54545H640.905C641.443 4.54545 641.803 4.90909 641.803 5.45455C641.803 6 641.443 6.36364 640.905 6.36364H638.749V11.0909C640.815 11.4545 642.342 13 642.342 14.8182C642.342 15.9091 641.803 16.9091 640.905 17.6364L644.048 34.4545C644.228 34.2727 644.497 34.0909 644.766 34.0909H646.922V31.4545C646.922 30.9091 647.281 30.5455 647.82 30.5455C648.359 30.5455 648.718 30.9091 648.718 31.4545V34.0909H650.874C651.412 34.0909 651.772 34.4545 651.772 35C651.772 35.5455 651.412 35.9091 650.874 35.9091H648.718V40.9091C651.053 42.2727 660.843 48.4545 661.561 54.8182C664.345 51.8182 668.027 49.5455 669.285 48.8182V44.5455H667.489C666.95 44.5455 666.59 44.1818 666.59 43.6364C666.59 43.0909 666.95 42.7273 667.489 42.7273H669.285V40.4545C669.285 39.9091 669.644 39.5455 670.183 39.5455C670.722 39.5455 671.081 39.9091 671.081 40.4545V42.7273H672.877C673.416 42.7273 673.775 43.0909 673.775 43.6364C673.775 44.1818 673.416 44.5455 672.877 44.5455H671.081V48.8182C673.326 50.1818 682.577 56.0909 682.577 62C682.577 64.7273 680.781 67 678.266 67.6364V84.6364H681.679C682.128 84.6364 682.577 85.0909 682.667 85.5455V106M608.034 61.1818C607.136 60.1818 606.597 58.9091 606.597 57.4545C606.597 51.1818 617.464 45 617.913 44.7273C618.362 44.4545 618.901 44.6364 619.17 45.0909C619.44 45.5455 619.26 46.0909 618.811 46.3636C615.937 48 608.393 53.1818 608.393 57.5455C608.393 59.6364 610.099 61.2727 612.075 61.2727H608.034V61.1818ZM615.039 98.7273C615.039 99.2727 614.68 99.6364 614.141 99.6364C613.602 99.6364 613.243 99.2727 613.243 98.7273V92.4545C613.243 91.9091 613.602 91.5455 614.141 91.5455C614.68 91.5455 615.039 91.9091 615.039 92.4545V98.7273ZM613.872 61.1818C613.243 60.3636 612.884 59.3636 612.884 58.3636C612.884 53.2727 621.146 48.4545 622.134 47.9091C622.583 47.6364 623.122 47.8182 623.391 48.2727C623.661 48.7273 623.481 49.2727 623.032 49.5455C620.697 50.8182 614.68 55 614.68 58.3636C614.68 59.9091 615.937 61.1818 617.464 61.1818H613.872ZM618.811 59.4545C618.811 55.7273 624.828 52.1818 625.457 51.8182C625.906 51.5455 626.445 51.7273 626.714 52.1818C626.984 52.6364 626.804 53.1818 626.355 53.4545C624.11 54.7273 620.607 57.4545 620.607 59.4545C620.607 60.4546 621.416 61.1818 622.314 61.1818H619.26C618.991 60.7273 618.811 60.0909 618.811 59.4545ZM622.673 98.7273C622.673 99.2727 622.314 99.6364 621.775 99.6364C621.236 99.6364 620.877 99.2727 620.877 98.7273V92.4545C620.877 91.9091 621.236 91.5455 621.775 91.5455C622.314 91.5455 622.673 91.9091 622.673 92.4545V98.7273ZM644.677 35.9091H646.832V40.9091C646.473 41.0909 645.934 41.4545 645.305 41.8182L644.228 35.8182C644.407 35.8182 644.587 35.9091 644.677 35.9091ZM641.264 60.1818C640.366 59.1818 639.827 57.9091 639.827 56.4545C639.827 51.0909 647.73 45.8182 650.335 44.1818C650.784 43.9091 651.053 43.7273 651.143 43.7273C651.592 43.4545 652.131 43.6364 652.4 44.0909C652.67 44.5455 652.49 45.0909 652.041 45.3636C652.041 45.3636 651.951 45.3636 651.951 45.4545C648.988 47.1818 641.623 52.2727 641.623 56.5455C641.623 58.6364 643.329 60.2727 645.305 60.2727H641.264V60.1818ZM647.102 60.1818C646.473 59.3636 646.114 58.3636 646.114 57.3636C646.114 53 652.131 48.9091 654.466 47.4545C654.915 47.1818 655.184 47 655.364 46.9091C655.813 46.6364 656.352 46.8182 656.621 47.2727C656.891 47.7273 656.711 48.2727 656.262 48.5455C656.172 48.6364 655.993 48.7273 655.903 48.8182C653.388 50.3636 648 54.1818 648 57.4545C648 59 649.257 60.2727 650.784 60.2727H647.102V60.1818ZM655.364 60.0909C655.274 60.0909 655.274 60.0909 655.185 60.0909H652.49C652.221 59.5455 652.041 59 652.041 58.3636C652.041 55.1818 656.262 52.2727 658.058 51.1818C658.418 51 658.687 50.8182 658.777 50.7273C659.226 50.4545 659.765 50.6364 660.034 51.0909C660.304 51.5455 660.124 52.0909 659.675 52.3636C659.495 52.4545 659.226 52.6364 659.046 52.7273C656.801 54.0909 653.927 56.5455 653.927 58.3636C653.837 59.2727 654.556 60 655.364 60.0909ZM661.92 98.7273C661.92 99.2727 661.561 99.6364 661.022 99.6364C660.483 99.6364 660.124 99.2727 660.124 98.7273V92.4545C660.124 91.9091 660.483 91.5455 661.022 91.5455C661.561 91.5455 661.92 91.9091 661.92 92.4545V98.7273ZM662.01 84.6364H656.711V61.7273C657.071 61.6364 657.43 61.5455 657.789 61.3636C657.789 61.5455 657.789 61.7273 657.789 61.9091C657.789 64.6364 659.585 66.9091 662.1 67.5455V84.6364H662.01ZM662.908 62.7273C662.908 57.0909 672.698 51.4545 673.147 51.2727C673.596 51 674.135 51.1818 674.404 51.6364C674.673 52.0909 674.494 52.6364 674.045 52.9091C671.44 54.3636 664.794 59 664.794 62.8182C664.794 64.6364 666.231 66.0909 668.027 66.0909H664.166C663.357 65.0909 662.908 64 662.908 62.7273ZM669.554 98.7273C669.554 99.2727 669.195 99.6364 668.656 99.6364C668.117 99.6364 667.758 99.2727 667.758 98.7273V92.4545C667.758 91.9091 668.117 91.5455 668.656 91.5455C669.195 91.5455 669.554 91.9091 669.554 92.4545V98.7273ZM669.375 66C668.926 65.2727 668.566 64.4546 668.566 63.5455C668.566 58.9091 676.021 54.6364 676.919 54.0909C677.368 53.8182 677.907 54 678.176 54.4545C678.446 54.9091 678.266 55.4545 677.817 55.7273C675.751 56.9091 670.452 60.5455 670.452 63.5455C670.452 64.9091 671.53 66 672.877 66H669.375ZM674.224 66C674.045 65.5455 673.865 65.0909 673.865 64.5455C673.865 61.0909 679.254 58 679.883 57.6364C680.332 57.3636 680.87 57.5455 681.14 58C681.409 58.4545 681.23 59 680.781 59.2727C678.805 60.3636 675.661 62.8182 675.661 64.5455C675.661 65.3636 676.29 66 677.098 66H674.224Z" stroke="#BDBDBD"/>
<line x1="548" y1="96.5" x2="605" y2="96.5" stroke="#BDBDBD"/>
<line x1="417" y1="105.5" x2="474" y2="105.5" stroke="#BDBDBD"/>
<line x1="688" y1="105.5" x2="720" y2="105.5" stroke="#BDBDBD"/>
<line x1="-75" y1="105.5" x2="248" y2="105.5" stroke="#BDBDBD"/>
</svg>
