<svg width="17" height="16" viewBox="0 0 17 16" fill="none" xmlns="http://www.w3.org/2000/svg">
<path d="M12.0851 6.25236C12.0851 9.42628 9.49474 12.0047 6.29257 12.0047C3.09039 12.0047 0.5 9.42628 0.5 6.25236C0.5 3.07844 3.09039 0.5 6.29257 0.5C9.49474 0.5 12.0851 3.07844 12.0851 6.25236Z" stroke="white"/>
<line y1="-0.5" x2="7.92864" y2="-0.5" transform="matrix(0.709369 0.704837 -0.709369 0.704837 10.3757 10.3784)" stroke="white"/>
</svg>
